…
*count()* counts the number of times each value appears in a variable.
In other words, this function groups observations that share a common
variable value and then counts the number of observations in each group.
In the hospitals dataset, if I wanted to know the number of hospitals of
each TYPE in the dataset, I would count by TYPE. Below we calculate the
number of hospitals per state by counting by STATE.

``` r
#df %>% count(CATEGORICAL_VARIABLE)
hospitals %>% count(STATE)
```

    ## # A tibble: 57 x 2
    ##    STATE     n
    ##    <chr> <int>
    ##  1 AK       32
    ##  2 AL      133
    ##  3 AR      122
    ##  4 AS        1
    ##  5 AZ      144
    ##  6 CA      570
    ##  7 CO      119
    ##  8 CT       41
    ##  9 DC       15
    ## 10 DE       15
    ## # … with 47 more rows
…
For the hospitals dataset, we will group the observations by state and
then use summarize to calculate the sum of beds per
state.

``` r
#df %>% group_by(CATEGORICAL_VARIABLE) %>% summarize(NEW_VARIABLE_NAME = sum(NUMBERIC_VARIABLE, na.rm = TRUE)) %>% ungroup()
hospitals %>% group_by(STATE) %>% summarize(state_beds = sum(BEDS, na.rm = TRUE)) %>% ungroup()
```

    ## # A tibble: 57 x 2
    ##    STATE state_beds
    ##    <chr>      <int>
    ##  1 AK          1813
    ##  2 AL         19000
    ##  3 AR         11699
    ##  4 AS             0
    ##  5 AZ         15452
    ##  6 CA        104034
    ##  7 CO         11899
    ##  8 CT          9451
    ##  9 DC          4304
    ## 10 DE          2780
    ## # … with 47 more rows
…
